%TF.GenerationSoftware,KiCad,Pcbnew,7.0.1-3b83917a11~172~ubuntu22.04.1*%
%TF.CreationDate,2023-04-14T01:19:26+02:00*%
%TF.ProjectId,main_project,6d61696e-5f70-4726-9f6a-6563742e6b69,1.1*%
%TF.SameCoordinates,Original*%
%TF.FileFunction,Soldermask,Bot*%
%TF.FilePolarity,Negative*%
%FSLAX46Y46*%
G04 Gerber Fmt 4.6, Leading zero omitted, Abs format (unit mm)*
G04 Created by KiCad (PCBNEW 7.0.1-3b83917a11~172~ubuntu22.04.1) date 2023-04-14 01:19:26*
%MOMM*%
%LPD*%
G01*
G04 APERTURE LIST*
%ADD10R,1.700000X1.700000*%
%ADD11O,1.700000X1.700000*%
%ADD12C,4.000000*%
%ADD13C,2.700000*%
%ADD14O,1.900000X1.070000*%
%ADD15O,1.300000X1.300000*%
%ADD16C,1.524000*%
%ADD17C,1.600000*%
%ADD18C,2.000000*%
G04 APERTURE END LIST*
D10*
%TO.C,J7*%
X118433400Y-151715500D03*
D11*
X115893400Y-151715500D03*
%TD*%
D10*
%TO.C,J3*%
X124021300Y-126040000D03*
D11*
X126561300Y-126040000D03*
X129101300Y-126040000D03*
X131641300Y-126040000D03*
X134181300Y-126040000D03*
X136721300Y-126040000D03*
X139261300Y-126040000D03*
X141801300Y-126040000D03*
X144341300Y-126040000D03*
X146881300Y-126040000D03*
X149421300Y-126040000D03*
X151961300Y-126040000D03*
X154501300Y-126040000D03*
X157041300Y-126040000D03*
X159581300Y-126040000D03*
X162121300Y-126040000D03*
X164661300Y-126040000D03*
X167201300Y-126040000D03*
X169741300Y-126040000D03*
X172281300Y-126040000D03*
X174821300Y-126040000D03*
X177361300Y-126040000D03*
X179901300Y-126040000D03*
X182441300Y-126040000D03*
%TD*%
D12*
%TO.C,J8*%
X122480000Y-88475000D03*
X177680000Y-72475000D03*
D13*
X185900000Y-88475000D03*
%TD*%
D14*
%TO.C,J5*%
X196175000Y-141925000D03*
D15*
X193525000Y-140750000D03*
X193525000Y-135900000D03*
D14*
X196175000Y-134725000D03*
%TD*%
D16*
%TO.C,J4*%
X114199200Y-141264800D03*
X111659200Y-141264800D03*
X109119200Y-141264800D03*
X106579200Y-141264800D03*
X104039200Y-141264800D03*
X111659200Y-120944800D03*
X109119200Y-120944800D03*
X106579200Y-120944800D03*
X104039200Y-120944800D03*
%TD*%
D10*
%TO.C,J1*%
X124021300Y-149768200D03*
D11*
X126561300Y-149768200D03*
X129101300Y-149768200D03*
X131641300Y-149768200D03*
X134181300Y-149768200D03*
X136721300Y-149768200D03*
X139261300Y-149768200D03*
X141801300Y-149768200D03*
X144341300Y-149768200D03*
X146881300Y-149768200D03*
X149421300Y-149768200D03*
X151961300Y-149768200D03*
X154501300Y-149768200D03*
X157041300Y-149768200D03*
X159581300Y-149768200D03*
X162121300Y-149768200D03*
X164661300Y-149768200D03*
X167201300Y-149768200D03*
X169741300Y-149768200D03*
X172281300Y-149768200D03*
X174821300Y-149768200D03*
X177361300Y-149768200D03*
X179901300Y-149768200D03*
X182441300Y-149768200D03*
%TD*%
D16*
%TO.C,J2*%
X124026000Y-146162000D03*
X126566000Y-146162000D03*
X129106000Y-146162000D03*
X131646000Y-146162000D03*
X134186000Y-146162000D03*
X136726000Y-146162000D03*
X139266000Y-146162000D03*
X141806000Y-146162000D03*
X144346000Y-146162000D03*
X146886000Y-146162000D03*
X149426000Y-146162000D03*
X151966000Y-146162000D03*
X154506000Y-146162000D03*
X157046000Y-146162000D03*
X159586000Y-146162000D03*
X162126000Y-146162000D03*
X164666000Y-146162000D03*
X167206000Y-146162000D03*
X169746000Y-146162000D03*
X172286000Y-146162000D03*
X174826000Y-146162000D03*
X177366000Y-146162000D03*
X179906000Y-146162000D03*
X182446000Y-146162000D03*
X182446000Y-129652000D03*
X179906000Y-129652000D03*
X177366000Y-129652000D03*
X174826000Y-129652000D03*
X172286000Y-129652000D03*
X169746000Y-129652000D03*
X167206000Y-129652000D03*
X164666000Y-129652000D03*
X162126000Y-129652000D03*
X159586000Y-129652000D03*
X157046000Y-129652000D03*
X154506000Y-129652000D03*
X151966000Y-129652000D03*
X149426000Y-129652000D03*
X146886000Y-129652000D03*
X144346000Y-129652000D03*
X141806000Y-129652000D03*
X139266000Y-129652000D03*
X136726000Y-129652000D03*
X134186000Y-129652000D03*
X131646000Y-129652000D03*
X129106000Y-129652000D03*
X126566000Y-129652000D03*
X124026000Y-129652000D03*
%TD*%
D17*
%TO.C,R7*%
X172720000Y-113040000D03*
X172720000Y-120640000D03*
%TD*%
D10*
%TO.C,J6*%
X189913200Y-145436800D03*
D11*
X192453200Y-145436800D03*
%TD*%
D18*
%TO.C,SW1*%
X109680600Y-153974800D03*
X103180600Y-153974800D03*
X109680600Y-149474800D03*
X103180600Y-149474800D03*
%TD*%
M02*
