%TF.GenerationSoftware,KiCad,Pcbnew,7.0.1-3b83917a11~172~ubuntu22.04.1*%
%TF.CreationDate,2023-04-14T01:19:26+02:00*%
%TF.ProjectId,main_project,6d61696e-5f70-4726-9f6a-6563742e6b69,1.1*%
%TF.SameCoordinates,Original*%
%TF.FileFunction,Profile,NP*%
%FSLAX46Y46*%
G04 Gerber Fmt 4.6, Leading zero omitted, Abs format (unit mm)*
G04 Created by KiCad (PCBNEW 7.0.1-3b83917a11~172~ubuntu22.04.1) date 2023-04-14 01:19:26*
%MOMM*%
%LPD*%
G01*
G04 APERTURE LIST*
%TA.AperFunction,Profile*%
%ADD10C,0.050000*%
%TD*%
G04 APERTURE END LIST*
D10*
X100620000Y-66040000D02*
G75*
G03*
X98120000Y-68540000I0J-2500000D01*
G01*
X98120000Y-154980000D02*
G75*
G03*
X100620000Y-157480000I2500000J0D01*
G01*
X198120000Y-68540000D02*
G75*
G03*
X195620000Y-66040000I-2500000J0D01*
G01*
X98120000Y-68540000D02*
X98120000Y-154980000D01*
X195620000Y-157480000D02*
X100620000Y-157480000D01*
X100620000Y-66040000D02*
X195620000Y-66040000D01*
X195620000Y-157480000D02*
G75*
G03*
X198120000Y-154980000I0J2500000D01*
G01*
X198120000Y-68540000D02*
X198120000Y-154980000D01*
M02*
