Designator,Val,Package,Mid X,Mid Y,Rotation,Layer
C1,10p,C_0402_1005Metric,132.3431,-152.623,180.0,top
C2,10p,C_0402_1005Metric,137.7724,-152.5642,0.0,top
C3,10nF,C_1206_3216Metric,125.2194,-133.8036,-90.0,top
C4,100nF,C_0805_2012Metric,128.8008,-133.2956,-90.0,top
C5,100nF,C_0805_2012Metric,123.8248,-122.0094,90.0,top
C6,10uF,C_0402_1005Metric_Pad0.74x0.62mm_HandSolder,151.125,-114.3,-90.0,top
C7,10uF,C_0402_1005Metric_Pad0.74x0.62mm_HandSolder,172.72,-101.6,-90.0,top
C8,10uF,C_0402_1005Metric_Pad0.74x0.62mm_HandSolder,160.9,-111.85,-90.0,top
C9,10nF,C_0402_1005Metric_Pad0.74x0.62mm_HandSolder,118.991,-108.6525,90.0,top
C10,10uF,C_0402_1005Metric_Pad0.74x0.62mm_HandSolder,188.5275,-99.06,0.0,top
IC1,DW01A,SOT23-6,111.375,-102.525,180.0,top
J5,USB_B_Micro,USB_Conn_JLC_LCSC_C404969,196.845,-138.375,90.0,top
LED1,Green,D_0603_1608Metric,143.693,-96.6978,180.0,top
LED2,Green,D_0603_1608Metric,150.9664,-99.0317,-90.0,top
R1,10k,R_0402_1005Metric,134.15,-122.79,-90.0,top
R2,10k,R_0402_1005Metric,136.7389,-116.5588,-90.0,top
R3,10k,R_0402_1005Metric,139.2832,-116.579,-90.0,top
R4,0,R_0402_1005Metric,188.565,-137.925,180.0,top
R5,0,R_0402_1005Metric,188.99,-139.85,180.0,top
R6,4.7k,R_0402_1005Metric,170.1751,-109.0693,-90.0,top
R8,1k,R_1206_3216Metric_Pad1.30x1.75mm_HandSolder,139.1526,-96.7321,0.0,top
R9,1k,R_1206_3216Metric_Pad1.30x1.75mm_HandSolder,153.6459,-103.5651,90.0,top
R10,1.2k,R_1206_3216Metric_Pad1.30x1.75mm_HandSolder,143.3277,-109.5544,0.0,top
R11,1k,R_1206_3216Metric_Pad1.30x1.75mm_HandSolder,119.38,-114.3,180.0,top
R12,100,R_1206_3216Metric_Pad1.30x1.75mm_HandSolder,114.675,-109.1,90.0,top
R13,100,R_1206_3216Metric_Pad1.30x1.75mm_HandSolder,123.558,-109.0372,90.0,top
U1,CAT24C256,SOIC-8_L4.9-W3.9-P1.27-LS6.0-BL,135.410894,-140.7776,0.0,top
U2,CH340C,SOIC-16_3.9x9.9mm_P1.27mm,175.9972,-138.3145,-90.0,top
U3,SHTC3,Sensirion_DFN-4-1EP_2x2mm_P1mm_EP0.7x1.6mm,157.48,-114.3,0.0,top
U4,HT75xx-1-SOT89,SOT-89-3,128.9,-112.25,90.0,top
U5,TP4056,SOP127P600X175-9N,142.7,-103.05,90.0,top
U6,FS8205A,TSSOP-8_L4.4-W3.0-P0.65-LS6.4-BL-2,119.325,-96.504554,90.0,top
U7,MCP1700x-120xxMB,SOT-23-3,148.7225,-119.38,0.0,top
Y1,16MHz,Crystal_SMD_3225-4Pin_3.2x2.5mm,134.6732,-155.1194,0.0,top
