(module "MICROXNJ" (layer F.Cu)
  (descr "MICROXNJ")
  (tags "Connector")
  (fp_text reference J** (at 0.000 1.37) (layer F.SilkS)
    (effects (font (size 1.27 1.27) (thickness 0.254)))
  )
  (fp_text user %R (at 0.000 1.37) (layer F.Fab)
    (effects (font (size 1.27 1.27) (thickness 0.254)))
  )
  (fp_text value "MICROXNJ" (at 0.000 1.37) (layer F.SilkS) hide
    (effects (font (size 1.27 1.27) (thickness 0.254)))
  )
  (fp_line (start -3.6 -2.13) (end 3.6 -2.13) (layer F.Fab) (width 0.2))
  (fp_line (start 3.6 -2.13) (end 3.6 2.93) (layer F.Fab) (width 0.2))
  (fp_line (start 3.6 2.93) (end -3.6 2.93) (layer F.Fab) (width 0.2))
  (fp_line (start -3.6 2.93) (end -3.6 -2.13) (layer F.Fab) (width 0.2))
  (fp_line (start -5.575 -2.12) (end 5.575 -2.12) (layer F.CrtYd) (width 0.1))
  (fp_line (start 5.575 -2.12) (end 5.575 4.87) (layer F.CrtYd) (width 0.1))
  (fp_line (start 5.575 4.87) (end -5.575 4.87) (layer F.CrtYd) (width 0.1))
  (fp_line (start -5.575 4.87) (end -5.575 -2.12) (layer F.CrtYd) (width 0.1))
  (fp_line (start -5.575 -2.12) (end 5.575 -2.12) (layer F.CrtYd) (width 0.1))
  (fp_line (start 5.575 -2.12) (end 5.575 4.87) (layer F.CrtYd) (width 0.1))
  (fp_line (start 5.575 4.87) (end -5.575 4.87) (layer F.CrtYd) (width 0.1))
  (fp_line (start -5.575 4.87) (end -5.575 -2.12) (layer F.CrtYd) (width 0.1))
  (fp_line (start 1.2 3.77) (end 1.2 3.77) (layer F.SilkS) (width 0.2))
  (fp_line (start 1.4 3.77) (end 1.4 3.77) (layer F.SilkS) (width 0.2))
  (fp_line (start -3.6 1.37) (end -3.6 2.93) (layer F.SilkS) (width 0.1))
  (fp_line (start -3.6 2.93) (end -3.6 2.93) (layer F.SilkS) (width 0.1))
  (fp_line (start -3.6 2.93) (end -3.5 2.93) (layer F.SilkS) (width 0.1))
  (fp_line (start 3.6 1.37) (end 3.6 2.93) (layer F.SilkS) (width 0.1))
  (fp_line (start 3.6 2.93) (end 3.5 2.93) (layer F.SilkS) (width 0.1))
  (fp_line (start -3.6 -1.63) (end -3.6 -2.13) (layer F.SilkS) (width 0.1))
  (fp_line (start -3.6 -2.13) (end 3.6 -2.13) (layer F.SilkS) (width 0.1))
  (fp_line (start 3.6 -2.13) (end 3.6 -1.63) (layer F.SilkS) (width 0.1))
  (fp_arc (start 1.3 3.77) (end 1.200 3.77) (angle -180) (layer F.SilkS) (width 0.2))
  (fp_arc (start 1.3 3.77) (end 1.400 3.77) (angle -180) (layer F.SilkS) (width 0.2))
  (pad 1 smd rect (at 1.300 3.2 0) (size 0.400 1.250) (layers F.Cu F.Paste F.Mask))
  (pad 2 smd rect (at 0.650 3.2 0) (size 0.400 1.250) (layers F.Cu F.Paste F.Mask))
  (pad 3 smd rect (at 0.000 3.2 0) (size 0.400 1.250) (layers F.Cu F.Paste F.Mask))
  (pad 4 smd rect (at -0.650 3.2 0) (size 0.400 1.250) (layers F.Cu F.Paste F.Mask))
  (pad 5 smd rect (at -1.300 3.2 0) (size 0.400 1.250) (layers F.Cu F.Paste F.Mask))
  (pad MH1 thru_hole circle (at 2.425 2.68) (size 1.300 1.300) (drill 0.7) (layers *.Cu *.Mask))
  (pad MH2 thru_hole circle (at -2.425 2.68) (size 1.300 1.300) (drill 0.7) (layers *.Cu *.Mask))
  (pad MH3 thru_hole circle (at 3.625 -0) (size 1.900 1.900) (drill 1.3) (layers *.Cu *.Mask))
  (pad MH4 thru_hole circle (at -3.625 -0) (size 1.900 1.900) (drill 1.3) (layers *.Cu *.Mask))
  (model MICROXNJ.stp
    (at (xyz 0 -0.11732283539659 0.043307087552829))
    (scale (xyz 1 1 1))
    (rotate (xyz -90 0 -180))
  )
)
