PCBNEW-LibModule-V1  2023-03-29 20:40:52
# encoding utf-8
Units mm
$INDEX
MICROXNJ
$EndINDEX
$MODULE MICROXNJ
Po 0 0 0 15 64249444 00000000 ~~
Li MICROXNJ
Cd MICROXNJ
Kw Connector
Sc 0
At STD
AR 
Op 0 0 0
T0 0.000 1.37 1.27 1.27 0 0.254 N V 21 N "J**"
T1 0.000 1.37 1.27 1.27 0 0.254 N I 21 N "MICROXNJ"
DS -3.6 -2.13 3.6 -2.13 0.2 24
DS 3.6 -2.13 3.6 2.93 0.2 24
DS 3.6 2.93 -3.6 2.93 0.2 24
DS -3.6 2.93 -3.6 -2.13 0.2 24
DS -5.575 -2.12 5.575 -2.12 0.1 24
DS 5.575 -2.12 5.575 4.87 0.1 24
DS 5.575 4.87 -5.575 4.87 0.1 24
DS -5.575 4.87 -5.575 -2.12 0.1 24
DS -5.575 -2.12 5.575 -2.12 0.1 24
DS 5.575 -2.12 5.575 4.87 0.1 24
DS 5.575 4.87 -5.575 4.87 0.1 24
DS -5.575 4.87 -5.575 -2.12 0.1 24
DS 1.2 3.77 1.2 3.77 0.2 21
DS 1.4 3.77 1.4 3.77 0.2 21
DS -3.6 1.37 -3.6 2.93 0.1 21
DS -3.6 2.93 -3.6 2.93 0.1 21
DS -3.6 2.93 -3.5 2.93 0.1 21
DS 3.6 1.37 3.6 2.93 0.1 21
DS 3.6 2.93 3.5 2.93 0.1 21
DS -3.6 -1.63 -3.6 -2.13 0.1 21
DS -3.6 -2.13 3.6 -2.13 0.1 21
DS 3.6 -2.13 3.6 -1.63 0.1 21
DA 1.3 3.77 1.200 3.77 -1800 0.2 21
DA 1.3 3.77 1.400 3.77 -1800 0.2 21
$PAD
Po 1.300 3.2
Sh "1" R 0.400 1.250 0 0 0
At SMD N 00888000
Ne 0 ""
$EndPAD
$PAD
Po 0.650 3.2
Sh "2" R 0.400 1.250 0 0 0
At SMD N 00888000
Ne 0 ""
$EndPAD
$PAD
Po 0.000 3.2
Sh "3" R 0.400 1.250 0 0 0
At SMD N 00888000
Ne 0 ""
$EndPAD
$PAD
Po -0.650 3.2
Sh "4" R 0.400 1.250 0 0 0
At SMD N 00888000
Ne 0 ""
$EndPAD
$PAD
Po -1.300 3.2
Sh "5" R 0.400 1.250 0 0 0
At SMD N 00888000
Ne 0 ""
$EndPAD
$PAD
Po 2.425 2.68
Sh "MH1" C 1.300 1.300 0 0 900
Dr 0.7 0 0
At STD N 00E0FFFF
Ne 0 ""
$EndPAD
$PAD
Po -2.425 2.68
Sh "MH2" C 1.300 1.300 0 0 900
Dr 0.7 0 0
At STD N 00E0FFFF
Ne 0 ""
$EndPAD
$PAD
Po 3.625 -0
Sh "MH3" C 1.900 1.900 0 0 900
Dr 1.3 0 0
At STD N 00E0FFFF
Ne 0 ""
$EndPAD
$PAD
Po -3.625 -0
Sh "MH4" C 1.900 1.900 0 0 900
Dr 1.3 0 0
At STD N 00E0FFFF
Ne 0 ""
$EndPAD
$EndMODULE MICROXNJ
$EndLIBRARY
