Comment,Designator,Footprint,LCSC
Header-Male-2.54_01x06_Pin,"J10,J11",PinHeader_1x06_P2.54mm_Vertical,C131341
24LC00,U1,PDIP-8_L9.3-W6.4-P2.54-LS7.9-BL-1,C1350367
100nF,"C3,C4,C5,C6,C7,C8",C_0805_2012Metric,C1525
TP4056,U5,PowerIntegrations_eSOP-12B,C16581
AMS1117-3.3,U4,SOT-223,C173386
10k,"R6,R7",R_0805_2012Metric,C17414
10k,R1,R_0805_2012Metric,C17902
10nF,C1,C_1206_3216Metric,C1846
SHTC3,U3,Sensirion_DFN-4-1EP_2x2mm_P1mm_EP0.7x1.6mm,C194656
4.7k,R4,R_0805_2012Metric,C1980
BAT60A,D1,D_SOD-123,C2117
1k,"R2,R3",R_0603_1608Metric,C21190
DW01A,U6,SOT-23-6_Handsoldering,C436931
1.2k,"R10,R11,R12,R13,R8,R9",R_1206_3216Metric_Pad1.30x1.75mm_HandSolder,C4410
100nF,C2,C_0805_2012Metric,C49678
Green,"LED1,LED2",D_0201_0603Metric,C54166
CH340C,U2,SOIC-16_3.9x9.9mm_P1.27mm,C84681
FS8205A,Q1,SOT-23-6_Handsoldering,C908265
TestPoint,TP4,TestPoint_Pad_D3.0mm,
Conn_01x24_Pin,J4,PinHeader_1x24_P2.54mm_Vertical,
TestPoint,TP8,TestPoint_Pad_D3.0mm,
D-,TP3,TestPoint_Pad_D3.0mm,
Conn_01x02_Pin,J6,PinHeader_1x02_P2.54mm_Vertical,
Conn_01x03_Male,J8,PinHeader_1x03_P2.54mm_Vertical,
Conn_01x04_Male,J9,PinHeader_1x04_P2.54mm_Vertical,
Vout,TP1,TestPoint_Pad_D3.0mm,
TestPoint,TP9,TestPoint_Pad_D3.0mm,
TestPoint,TP7,TestPoint_Pad_D3.0mm,
Conn_01x24_Socket,J3,PinSocket_1x24_P2.54mm_Vertical,
TestPoint,TP5,TestPoint_Pad_D3.0mm,
LDR03,R5,R_LDR_10x8.5mm_P7.6mm_Vertical,
D+,TP2,TestPoint_Pad_D3.0mm,
TestPoint,TP6,TestPoint_Pad_D3.0mm,
USB_B_Micro,J5,USB_Micro-B_GCT_USB3076-30-A,
Battery,BT1,Battery_CR1225,
SW_Push,SW1,SW_PUSH_6mm,
Conn_01x24_Socket,J2,PinSocket_1x24_P2.54mm_Vertical,
Conn_01x24_Pin,J1,PinHeader_1x24_P2.54mm_Vertical,
Conn_01x02_Pin,J7,PinHeader_1x02_P2.54mm_Vertical,
