M48
; DRILL file {KiCad 7.0.1-3b83917a11~171~ubuntu22.04.1} date Tue 04 Apr 2023 01:47:02
; FORMAT={-:-/ absolute / inch / decimal}
; #@! TF.CreationDate,2023-04-04T01:47:02+02:00
; #@! TF.GenerationSoftware,Kicad,Pcbnew,7.0.1-3b83917a11~171~ubuntu22.04.1
; #@! TF.FileFunction,Plated,1,2,PTH
FMAT,2
INCH
; #@! TA.AperFunction,Plated,PTH,ViaDrill
T1C0.0118
; #@! TA.AperFunction,Plated,PTH,ComponentDrill
T2C0.0197
; #@! TA.AperFunction,Plated,PTH,ComponentDrill
T3C0.0276
; #@! TA.AperFunction,Plated,PTH,ComponentDrill
T4C0.0300
; #@! TA.AperFunction,Plated,PTH,ComponentDrill
T5C0.0315
; #@! TA.AperFunction,Plated,PTH,ComponentDrill
T6C0.0394
; #@! TA.AperFunction,Plated,PTH,ComponentDrill
T7C0.0433
; #@! TA.AperFunction,Plated,PTH,ComponentDrill
T8C0.0945
; #@! TA.AperFunction,Plated,PTH,ComponentDrill
T9C0.1457
%
G90
G05
T1
X4.3612Y-5.6594
X4.439Y-5.6102
X4.4636Y-5.7352
X4.564Y-5.6083
X4.6152Y-5.6358
X4.6506Y-5.6575
X4.7053Y-4.4977
X4.8403Y-3.9632
X4.8671Y-5.6132
X4.8691Y-5.6585
X4.9254Y-4.757
X5.0022Y-4.561
X5.0038Y-5.2868
X5.062Y-5.6152
X5.062Y-5.6594
X5.1732Y-4.7618
X5.2015Y-6.0457
X5.2638Y-5.5736
X5.2878Y-4.6638
X5.3126Y-5.5248
X5.3248Y-4.8252
X5.4242Y-4.5974
X5.4513Y-6.0445
X5.5069Y-4.5236
X5.5491Y-4.2391
X5.6132Y-4.2391
X5.6528Y-4.3088
X5.8612Y-4.3346
X5.8878Y-4.4753
X5.9988Y-4.542
X6.123Y-4.4203
X6.127Y-4.4753
X6.2774Y-4.476
X6.3953Y-4.4
X6.4656Y-4.3337
X6.5472Y-4.4114
X6.7517Y-4.0267
X6.8937Y-5.4423
X6.929Y-5.4906
X6.9706Y-5.3819
X7.0896Y-5.4974
X7.1918Y-5.3354
X7.4955Y-3.9118
X7.5627Y-5.371
X7.6024Y-5.2549
X7.6201Y-5.6161
X7.7165Y-5.2411
X7.7234Y-5.6545
T3
X7.6191Y-5.3504
X7.6191Y-5.5413
T4
X4.096Y-4.7616
X4.096Y-5.5616
X4.196Y-4.7616
X4.196Y-5.5616
X4.296Y-4.7616
X4.296Y-5.5616
X4.396Y-4.7616
X4.396Y-5.5616
X4.496Y-5.5616
X4.8829Y-5.1044
X4.8829Y-5.7544
X4.9829Y-5.1044
X4.9829Y-5.7544
X5.0829Y-5.1044
X5.0829Y-5.7544
X5.1829Y-5.1044
X5.1829Y-5.7544
X5.2829Y-5.1044
X5.2829Y-5.7544
X5.3829Y-5.1044
X5.3829Y-5.7544
X5.4829Y-5.1044
X5.4829Y-5.7544
X5.5829Y-5.1044
X5.5829Y-5.7544
X5.6829Y-5.1044
X5.6829Y-5.7544
X5.7829Y-5.1044
X5.7829Y-5.7544
X5.8829Y-5.1044
X5.8829Y-5.7544
X5.9829Y-5.1044
X5.9829Y-5.7544
X6.0829Y-5.1044
X6.0829Y-5.7544
X6.1829Y-5.1044
X6.1829Y-5.7544
X6.2829Y-5.1044
X6.2829Y-5.7544
X6.3829Y-5.1044
X6.3829Y-5.7544
X6.4829Y-5.1044
X6.4829Y-5.7544
X6.5829Y-5.1044
X6.5829Y-5.7544
X6.6829Y-5.1044
X6.6829Y-5.7544
X6.7829Y-5.1044
X6.7829Y-5.7544
X6.8829Y-5.1044
X6.8829Y-5.7544
X6.9829Y-5.1044
X6.9829Y-5.7544
X7.0829Y-5.1044
X7.0829Y-5.7544
X7.1829Y-5.1044
X7.1829Y-5.7544
T5
X6.8Y-4.4504
X6.8Y-4.7496
T6
X4.5627Y-5.9731
X4.6627Y-5.9731
X4.8827Y-4.9622
X4.8827Y-5.8964
X4.9827Y-4.9622
X4.9827Y-5.8964
X5.0827Y-4.9622
X5.0827Y-5.8964
X5.1827Y-4.9622
X5.1827Y-5.8964
X5.2827Y-4.9622
X5.2827Y-5.8964
X5.3827Y-4.9622
X5.3827Y-5.8964
X5.4827Y-4.9622
X5.4827Y-5.8964
X5.5827Y-4.9622
X5.5827Y-5.8964
X5.6827Y-4.9622
X5.6827Y-5.8964
X5.7827Y-4.9622
X5.7827Y-5.8964
X5.8827Y-4.9622
X5.8827Y-5.8964
X5.9827Y-4.9622
X5.9827Y-5.8964
X6.0827Y-4.9622
X6.0827Y-5.8964
X6.1827Y-4.9622
X6.1827Y-5.8964
X6.2827Y-4.9622
X6.2827Y-5.8964
X6.3827Y-4.9622
X6.3827Y-5.8964
X6.4827Y-4.9622
X6.4827Y-5.8964
X6.5827Y-4.9622
X6.5827Y-5.8964
X6.6827Y-4.9622
X6.6827Y-5.8964
X6.7827Y-4.9622
X6.7827Y-5.8964
X6.8827Y-4.9622
X6.8827Y-5.8964
X6.9827Y-4.9622
X6.9827Y-5.8964
X7.0827Y-4.9622
X7.0827Y-5.8964
X7.1827Y-4.9622
X7.1827Y-5.8964
X7.4769Y-5.7259
X7.5769Y-5.7259
T7
X4.0622Y-5.8848
X4.0622Y-6.062
X4.3181Y-5.8848
X4.3181Y-6.062
T8
X7.3189Y-3.4833
T9
X4.822Y-3.4833
X6.9953Y-2.8533
T2
G00X7.7077Y-5.3041
M15
G01X7.7392Y-5.3041
M16
G05
G00X7.7077Y-5.5876
M15
G01X7.7392Y-5.5876
M16
G05
T0
M30
