%TF.GenerationSoftware,KiCad,Pcbnew,7.0.1-3b83917a11~171~ubuntu22.04.1*%
%TF.CreationDate,2023-03-21T21:58:21+02:00*%
%TF.ProjectId,_autosave-main_project,5f617574-6f73-4617-9665-2d6d61696e5f,rev?*%
%TF.SameCoordinates,Original*%
%TF.FileFunction,Soldermask,Top*%
%TF.FilePolarity,Negative*%
%FSLAX46Y46*%
G04 Gerber Fmt 4.6, Leading zero omitted, Abs format (unit mm)*
G04 Created by KiCad (PCBNEW 7.0.1-3b83917a11~171~ubuntu22.04.1) date 2023-03-21 21:58:21*
%MOMM*%
%LPD*%
G01*
G04 APERTURE LIST*
G04 Aperture macros list*
%AMRoundRect*
0 Rectangle with rounded corners*
0 $1 Rounding radius*
0 $2 $3 $4 $5 $6 $7 $8 $9 X,Y pos of 4 corners*
0 Add a 4 corners polygon primitive as box body*
4,1,4,$2,$3,$4,$5,$6,$7,$8,$9,$2,$3,0*
0 Add four circle primitives for the rounded corners*
1,1,$1+$1,$2,$3*
1,1,$1+$1,$4,$5*
1,1,$1+$1,$6,$7*
1,1,$1+$1,$8,$9*
0 Add four rect primitives between the rounded corners*
20,1,$1+$1,$2,$3,$4,$5,0*
20,1,$1+$1,$4,$5,$6,$7,0*
20,1,$1+$1,$6,$7,$8,$9,0*
20,1,$1+$1,$8,$9,$2,$3,0*%
G04 Aperture macros list end*
%ADD10RoundRect,0.250000X-0.262500X-0.450000X0.262500X-0.450000X0.262500X0.450000X-0.262500X0.450000X0*%
%ADD11C,3.000000*%
%ADD12R,1.700000X1.700000*%
%ADD13O,1.700000X1.700000*%
%ADD14RoundRect,0.250000X-0.625000X0.400000X-0.625000X-0.400000X0.625000X-0.400000X0.625000X0.400000X0*%
%ADD15RoundRect,0.250000X0.625000X-0.400000X0.625000X0.400000X-0.625000X0.400000X-0.625000X-0.400000X0*%
%ADD16RoundRect,0.150000X0.150000X-0.825000X0.150000X0.825000X-0.150000X0.825000X-0.150000X-0.825000X0*%
%ADD17RoundRect,0.200000X0.200000X0.275000X-0.200000X0.275000X-0.200000X-0.275000X0.200000X-0.275000X0*%
%ADD18RoundRect,0.250000X-0.250000X-0.475000X0.250000X-0.475000X0.250000X0.475000X-0.250000X0.475000X0*%
%ADD19RoundRect,0.100000X0.130000X0.100000X-0.130000X0.100000X-0.130000X-0.100000X0.130000X-0.100000X0*%
%ADD20RoundRect,0.155000X-0.212500X-0.155000X0.212500X-0.155000X0.212500X0.155000X-0.212500X0.155000X0*%
%ADD21O,1.520000X2.000000*%
%ADD22R,1.560000X0.650000*%
%ADD23RoundRect,0.250000X-0.400000X-0.625000X0.400000X-0.625000X0.400000X0.625000X-0.400000X0.625000X0*%
%ADD24O,1.700000X0.710000*%
%ADD25R,5.510000X8.150000*%
%ADD26C,1.600000*%
%ADD27RoundRect,0.225000X-0.375000X0.225000X-0.375000X-0.225000X0.375000X-0.225000X0.375000X0.225000X0*%
%ADD28RoundRect,0.250000X-0.325000X-0.650000X0.325000X-0.650000X0.325000X0.650000X-0.325000X0.650000X0*%
%ADD29RoundRect,0.135000X-0.135000X-0.185000X0.135000X-0.185000X0.135000X0.185000X-0.135000X0.185000X0*%
%ADD30R,1.400000X0.400000*%
%ADD31O,1.900000X1.050000*%
%ADD32R,1.450000X1.150000*%
%ADD33R,1.900000X1.750000*%
%ADD34RoundRect,0.087500X-0.187500X-0.087500X0.187500X-0.087500X0.187500X0.087500X-0.187500X0.087500X0*%
%ADD35RoundRect,0.175000X-0.175000X-0.625000X0.175000X-0.625000X0.175000X0.625000X-0.175000X0.625000X0*%
%ADD36R,2.000000X1.500000*%
%ADD37R,2.000000X3.800000*%
%ADD38C,2.000000*%
G04 APERTURE END LIST*
D10*
%TO.C,R6*%
X127317500Y-76610000D03*
X129142500Y-76610000D03*
%TD*%
D11*
%TO.C,TP4*%
X155887500Y-58890000D03*
%TD*%
D12*
%TO.C,J4*%
X91757500Y-96930000D03*
D13*
X94297500Y-96930000D03*
X96837500Y-96930000D03*
X99377500Y-96930000D03*
X101917500Y-96930000D03*
X104457500Y-96930000D03*
X106997500Y-96930000D03*
X109537500Y-96930000D03*
X112077500Y-96930000D03*
X114617500Y-96930000D03*
X117157500Y-96930000D03*
X119697500Y-96930000D03*
X122237500Y-96930000D03*
X124777500Y-96930000D03*
X127317500Y-96930000D03*
X129857500Y-96930000D03*
X132397500Y-96930000D03*
X134937500Y-96930000D03*
X137477500Y-96930000D03*
X140017500Y-96930000D03*
X142557500Y-96930000D03*
X145097500Y-96930000D03*
X147637500Y-96930000D03*
X150177500Y-96930000D03*
%TD*%
D14*
%TO.C,R8*%
X140450000Y-69570000D03*
X140450000Y-72670000D03*
%TD*%
D15*
%TO.C,R10*%
X129540000Y-59970000D03*
X129540000Y-56870000D03*
%TD*%
D16*
%TO.C,U2*%
X127952500Y-91785000D03*
X129222500Y-91785000D03*
X130492500Y-91785000D03*
X131762500Y-91785000D03*
X133032500Y-91785000D03*
X134302500Y-91785000D03*
X135572500Y-91785000D03*
X136842500Y-91785000D03*
X136842500Y-86835000D03*
X135572500Y-86835000D03*
X134302500Y-86835000D03*
X133032500Y-86835000D03*
X131762500Y-86835000D03*
X130492500Y-86835000D03*
X129222500Y-86835000D03*
X127952500Y-86835000D03*
%TD*%
D17*
%TO.C,R2*%
X92582500Y-91820000D03*
X90932500Y-91820000D03*
%TD*%
D11*
%TO.C,TP8*%
X165987500Y-58890000D03*
%TD*%
%TO.C,TP3*%
X152717500Y-86770000D03*
%TD*%
D18*
%TO.C,C3*%
X163937500Y-67970000D03*
X165837500Y-67970000D03*
%TD*%
D19*
%TO.C,LED1*%
X144755000Y-71120000D03*
X144115000Y-71120000D03*
%TD*%
D14*
%TO.C,R9*%
X137160000Y-69570000D03*
X137160000Y-72670000D03*
%TD*%
D12*
%TO.C,J6*%
X147637500Y-79150000D03*
D13*
X147637500Y-81690000D03*
%TD*%
D12*
%TO.C,J8*%
X160337500Y-68790000D03*
D13*
X160337500Y-71330000D03*
X160337500Y-73870000D03*
%TD*%
D12*
%TO.C,J9*%
X155687500Y-68790000D03*
D13*
X155687500Y-71330000D03*
X155687500Y-73870000D03*
X155687500Y-76410000D03*
%TD*%
D11*
%TO.C,TP1*%
X147637500Y-74070000D03*
%TD*%
%TO.C,TP9*%
X165987500Y-63940000D03*
%TD*%
D20*
%TO.C,C7*%
X116725000Y-57150000D03*
X117860000Y-57150000D03*
%TD*%
D18*
%TO.C,C2*%
X95147500Y-90610000D03*
X97047500Y-90610000D03*
%TD*%
D19*
%TO.C,LED2*%
X134595000Y-71120000D03*
X133955000Y-71120000D03*
%TD*%
D11*
%TO.C,TP7*%
X160937500Y-63940000D03*
%TD*%
D20*
%TO.C,C6*%
X116725000Y-55180000D03*
X117860000Y-55180000D03*
%TD*%
D21*
%TO.C,U1*%
X118427500Y-82820000D03*
X115887500Y-82820000D03*
X113347500Y-82820000D03*
X110807500Y-82820000D03*
X110807500Y-90720000D03*
X113347500Y-90720000D03*
X115887500Y-90720000D03*
X118427500Y-90720000D03*
%TD*%
D22*
%TO.C,U6*%
X111600000Y-69220000D03*
X111600000Y-70170000D03*
X111600000Y-71120000D03*
X114300000Y-71120000D03*
X114300000Y-70170000D03*
X114300000Y-69220000D03*
%TD*%
D23*
%TO.C,R12*%
X105312500Y-56810000D03*
X108412500Y-56810000D03*
%TD*%
D15*
%TO.C,R13*%
X106862500Y-61650000D03*
X106862500Y-58550000D03*
%TD*%
D12*
%TO.C,J3*%
X91757500Y-102920000D03*
D13*
X94297500Y-102920000D03*
X96837500Y-102920000D03*
X99377500Y-102920000D03*
X101917500Y-102920000D03*
X104457500Y-102920000D03*
X106997500Y-102920000D03*
X109537500Y-102920000D03*
X112077500Y-102920000D03*
X114617500Y-102920000D03*
X117157500Y-102920000D03*
X119697500Y-102920000D03*
X122237500Y-102920000D03*
X124777500Y-102920000D03*
X127317500Y-102920000D03*
X129857500Y-102920000D03*
X132397500Y-102920000D03*
X134937500Y-102920000D03*
X137477500Y-102920000D03*
X140017500Y-102920000D03*
X142557500Y-102920000D03*
X145097500Y-102920000D03*
X147637500Y-102920000D03*
X150177500Y-102920000D03*
%TD*%
D11*
%TO.C,TP5*%
X165417500Y-71530000D03*
%TD*%
D24*
%TO.C,U5*%
X134197500Y-57550000D03*
X134197500Y-59330000D03*
X134197500Y-61110000D03*
X134197500Y-62890000D03*
X134197500Y-66450000D03*
X145097500Y-66450000D03*
X145097500Y-64670000D03*
X145097500Y-62890000D03*
X145097500Y-61110000D03*
X145097500Y-59330000D03*
X145097500Y-57550000D03*
D25*
X139647500Y-62000000D03*
%TD*%
D26*
%TO.C,R5*%
X101917500Y-77870000D03*
X101917500Y-70270000D03*
%TD*%
D20*
%TO.C,C4*%
X116725000Y-51240000D03*
X117860000Y-51240000D03*
%TD*%
D11*
%TO.C,TP2*%
X152717500Y-91850000D03*
%TD*%
D10*
%TO.C,R7*%
X127317500Y-79560000D03*
X129142500Y-79560000D03*
%TD*%
D27*
%TO.C,D1*%
X116840000Y-66930000D03*
X116840000Y-70230000D03*
%TD*%
D28*
%TO.C,C1*%
X100512500Y-83580000D03*
X103462500Y-83580000D03*
%TD*%
D29*
%TO.C,R4*%
X127720000Y-73660000D03*
X128740000Y-73660000D03*
%TD*%
D11*
%TO.C,TP6*%
X160937500Y-58890000D03*
%TD*%
D30*
%TO.C,J5*%
X147747500Y-86885000D03*
X147747500Y-87535000D03*
X147747500Y-88185000D03*
X147747500Y-88835000D03*
X147747500Y-89485000D03*
D31*
X145097500Y-84610000D03*
D32*
X147327500Y-85865000D03*
D33*
X145097500Y-87060000D03*
X145097500Y-89310000D03*
D32*
X147327500Y-90505000D03*
D31*
X145097500Y-91760000D03*
%TD*%
D22*
%TO.C,Q1*%
X111412500Y-61600000D03*
X111412500Y-62550000D03*
X111412500Y-63500000D03*
X114112500Y-63500000D03*
X114112500Y-62550000D03*
X114112500Y-61600000D03*
%TD*%
D34*
%TO.C,U3*%
X107097500Y-78150000D03*
X107097500Y-79150000D03*
X108947500Y-79150000D03*
X108947500Y-78150000D03*
D35*
X108022500Y-78650000D03*
%TD*%
D20*
%TO.C,C5*%
X116725000Y-53210000D03*
X117860000Y-53210000D03*
%TD*%
D10*
%TO.C,R1*%
X99615000Y-90580000D03*
X101440000Y-90580000D03*
%TD*%
D36*
%TO.C,U4*%
X120700000Y-66280000D03*
X120700000Y-68580000D03*
X120700000Y-70880000D03*
D37*
X127000000Y-68580000D03*
%TD*%
D12*
%TO.C,J10*%
X91757500Y-68990000D03*
D13*
X91757500Y-71530000D03*
X91757500Y-74070000D03*
X91757500Y-76610000D03*
X91757500Y-79150000D03*
X91757500Y-81690000D03*
%TD*%
D20*
%TO.C,C8*%
X116725000Y-59120000D03*
X117860000Y-59120000D03*
%TD*%
D38*
%TO.C,SW1*%
X111787500Y-130380000D03*
X111787500Y-136880000D03*
X107287500Y-130380000D03*
X107287500Y-136880000D03*
%TD*%
D12*
%TO.C,J2*%
X91757500Y-120220000D03*
D13*
X94297500Y-120220000D03*
X96837500Y-120220000D03*
X99377500Y-120220000D03*
X101917500Y-120220000D03*
X104457500Y-120220000D03*
X106997500Y-120220000D03*
X109537500Y-120220000D03*
X112077500Y-120220000D03*
X114617500Y-120220000D03*
X117157500Y-120220000D03*
X119697500Y-120220000D03*
X122237500Y-120220000D03*
X124777500Y-120220000D03*
X127317500Y-120220000D03*
X129857500Y-120220000D03*
X132397500Y-120220000D03*
X134937500Y-120220000D03*
X137477500Y-120220000D03*
X140017500Y-120220000D03*
X142557500Y-120220000D03*
X145097500Y-120220000D03*
X147637500Y-120220000D03*
X150177500Y-120220000D03*
%TD*%
D12*
%TO.C,J1*%
X91757500Y-124870000D03*
D13*
X94297500Y-124870000D03*
X96837500Y-124870000D03*
X99377500Y-124870000D03*
X101917500Y-124870000D03*
X104457500Y-124870000D03*
X106997500Y-124870000D03*
X109537500Y-124870000D03*
X112077500Y-124870000D03*
X114617500Y-124870000D03*
X117157500Y-124870000D03*
X119697500Y-124870000D03*
X122237500Y-124870000D03*
X124777500Y-124870000D03*
X127317500Y-124870000D03*
X129857500Y-124870000D03*
X132397500Y-124870000D03*
X134937500Y-124870000D03*
X137477500Y-124870000D03*
X140017500Y-124870000D03*
X142557500Y-124870000D03*
X145097500Y-124870000D03*
X147637500Y-124870000D03*
X150177500Y-124870000D03*
%TD*%
D23*
%TO.C,R11*%
X105312500Y-53520000D03*
X108412500Y-53520000D03*
%TD*%
D12*
%TO.C,J11*%
X91757500Y-51210000D03*
D13*
X91757500Y-53750000D03*
X91757500Y-56290000D03*
X91757500Y-58830000D03*
X91757500Y-61370000D03*
X91757500Y-63910000D03*
%TD*%
D17*
%TO.C,R3*%
X92582500Y-89310000D03*
X90932500Y-89310000D03*
%TD*%
D12*
%TO.C,J7*%
X122237500Y-89310000D03*
D13*
X124777500Y-89310000D03*
%TD*%
M02*
