"Source:","/home/txddy/Desktop/school/3rd year/EEE3088 Design/EEE3088f/PCB/Sensing.kicad_sch"
"Date:","Tue 14 Mar 2023 11:57:28"
"Tool:","Eeschema 7.0.1-3b83917a11~171~ubuntu22.04.1"
"Generator:","/usr/share/kicad/plugins/bom_csv_grouped_by_value.py"
"Component Count:","14"

"Collated Components:"

"Item","Qty","Reference(s)","Value","LibPart","Footprint","Datasheet","DNP","Cost","Supplier"
"1","1","C1","100nF","Device:C","","~","","$0.035","JLCPCB"
"2","1","J1","Conn_01x03_Male","Connector:Conn_01x03_Male","DNP","~","","$0","JLCPCB"
"3","1","J2","Conn_01x04_Male","Connector:Conn_01x04_Male","DNP","~","","$0","JLCPCB"
"4","1","R1","4.7k","Device:R","Resistor_SMD:R_0805_2012Metric","~","","$0.027","JLCPCB"
"5","1","R2","LDR03","Sensor_Optical:LDR03","OptoDevice:R_LDR_10x8.5mm_P7.6mm_Vertical","http://www.elektronica-componenten.nl/WebRoot/StoreNL/Shops/61422969/54F1/BA0C/C664/31B9/2173/C0A8/2AB9/2AEF/LDR03IMP.pdf","","$0.027","JLCPCB"
"6","2","R3, R4","10k","Device:R","Resistor_SMD:R_0805_2012Metric","~","","$0.027","JLCPCB"
"7","6","TP1, TP2, TP3, TP4, TP5, TP6","TestPoint","Connector:TestPoint","DNP","~","","$0","JLCPCB"
"8","1","U1","SHTC3","Sensor_Humidity:SHTC3","Sensor_Humidity:Sensirion_DFN-4-1EP_2x2mm_P1mm_EP0.7x1.6mm","https://www.sensirion.com/fileadmin/user_upload/customers/sensirion/Dokumente/0_Datasheets/Humidity/Sensirion_Humidity_Sensors_SHTC3_Datasheet.pdf","","$1.39","JLCPCB"
