(module "TSSOP-8_L4.4-W3.0-P0.65-LS6.4-BL-2" (layer F.Cu) (tedit 642B5E30)
  (descr "TSSOP-8_L4.4-W3.0-P0.65-LS6.4-BL-2 footprint")
  (tags "TSSOP-8_L4.4-W3.0-P0.65-LS6.4-BL-2 footprint")
  (fp_text reference REF** (at -0.000076 -5.200406) (layer F.SilkS)
    (effects (font (size 1 1) (thickness 0.15)))
  )
  (fp_text value TSSOP-8_L4.4-W3.0-P0.65-LS6.4-BL-2 (at -0.000076 5.200406) (layer F.Fab)
    (effects (font (size 1 1) (thickness 0.15)))
  )
  (fp_arc (start -1.736093 2.715412) (end -1.734823 2.565405) (angle 359.189709) (layer F.SilkS) (width 0.3))
  (fp_arc (start -1.500153 -0.0381) (end -1.500152 -0.762002) (angle 179.999983) (layer F.SilkS) (width 0.254001))
  (fp_circle (center -1.5 3.199898) (end -1.449962 3.199898) (layer F.SilkS) (width 0.1))
  (fp_circle (center -1.112395 3.048006) (end -0.962281 3.048006) (layer F.Fab) (width 0.3))
  (fp_line (start -1.500152 2.108204) (end 1.5 2.108204) (layer F.SilkS) (width 0.254001))
  (fp_line (start 1.5 2.108204) (end 1.5 -2.159004) (layer F.SilkS) (width 0.254001))
  (fp_line (start 1.462916 -2.159004) (end -1.5 -2.159004) (layer F.SilkS) (width 0.254001))
  (fp_line (start -1.500152 -0.762002) (end -1.500152 -2.159004) (layer F.SilkS) (width 0.254001))
  (fp_line (start -1.500152 2.108204) (end -1.500152 0.711201) (layer F.SilkS) (width 0.254001))
  (pad 1 smd oval (at -0.975235 3.200406 180) (size 0.4 1.5) (layers F.Cu F.Mask F.Paste))
  (pad 2 smd oval (at -0.324994 3.200406 180) (size 0.4 1.5) (layers F.Cu F.Mask F.Paste))
  (pad 3 smd oval (at 0.325248 3.200406 180) (size 0.4 1.5) (layers F.Cu F.Mask F.Paste))
  (pad 4 smd oval (at 0.975489 3.200406 180) (size 0.4 1.5) (layers F.Cu F.Mask F.Paste))
  (pad 8 smd oval (at -0.975235 -3.200406 180) (size 0.4 1.5) (layers F.Cu F.Mask F.Paste))
  (pad 7 smd oval (at -0.324994 -3.200406 180) (size 0.4 1.5) (layers F.Cu F.Mask F.Paste))
  (pad 6 smd oval (at 0.325248 -3.200406 180) (size 0.4 1.5) (layers F.Cu F.Mask F.Paste))
  (pad 5 smd oval (at 0.975489 -3.200406 180) (size 0.4 1.5) (layers F.Cu F.Mask F.Paste))
  (fp_text user REF** (at -0.000076 7.200406) (layer F.Fab)
    (effects (font (size 1 1) (thickness 0.15)))
  )
  (model "/home/txddy/Desktop/school/3rd year/EEE3088 Design/GIT FILES/EEE3088f PCB Handin/PCB/Library/JLC2KiCad_lib/footprint/packages3d/TSSOP-8_L4.4-W3.0-P0.65-LS6.4-BL-2.wrl"
    (at (xyz 0 0 0.00272))
    (scale (xyz 1 1 1))
    (rotate (xyz 0 0 -90))
  )
)