%TF.GenerationSoftware,KiCad,Pcbnew,7.0.1-3b83917a11~171~ubuntu22.04.1*%
%TF.CreationDate,2023-03-21T21:58:21+02:00*%
%TF.ProjectId,_autosave-main_project,5f617574-6f73-4617-9665-2d6d61696e5f,rev?*%
%TF.SameCoordinates,Original*%
%TF.FileFunction,Soldermask,Bot*%
%TF.FilePolarity,Negative*%
%FSLAX46Y46*%
G04 Gerber Fmt 4.6, Leading zero omitted, Abs format (unit mm)*
G04 Created by KiCad (PCBNEW 7.0.1-3b83917a11~171~ubuntu22.04.1) date 2023-03-21 21:58:21*
%MOMM*%
%LPD*%
G01*
G04 APERTURE LIST*
%ADD10R,1.700000X1.700000*%
%ADD11O,1.700000X1.700000*%
%ADD12O,1.520000X2.000000*%
%ADD13C,1.600000*%
%ADD14O,1.900000X1.050000*%
%ADD15C,2.000000*%
G04 APERTURE END LIST*
D10*
%TO.C,J4*%
X91757500Y-96930000D03*
D11*
X94297500Y-96930000D03*
X96837500Y-96930000D03*
X99377500Y-96930000D03*
X101917500Y-96930000D03*
X104457500Y-96930000D03*
X106997500Y-96930000D03*
X109537500Y-96930000D03*
X112077500Y-96930000D03*
X114617500Y-96930000D03*
X117157500Y-96930000D03*
X119697500Y-96930000D03*
X122237500Y-96930000D03*
X124777500Y-96930000D03*
X127317500Y-96930000D03*
X129857500Y-96930000D03*
X132397500Y-96930000D03*
X134937500Y-96930000D03*
X137477500Y-96930000D03*
X140017500Y-96930000D03*
X142557500Y-96930000D03*
X145097500Y-96930000D03*
X147637500Y-96930000D03*
X150177500Y-96930000D03*
%TD*%
D10*
%TO.C,J6*%
X147637500Y-79150000D03*
D11*
X147637500Y-81690000D03*
%TD*%
D10*
%TO.C,J8*%
X160337500Y-68790000D03*
D11*
X160337500Y-71330000D03*
X160337500Y-73870000D03*
%TD*%
D10*
%TO.C,J9*%
X155687500Y-68790000D03*
D11*
X155687500Y-71330000D03*
X155687500Y-73870000D03*
X155687500Y-76410000D03*
%TD*%
D12*
%TO.C,U1*%
X118427500Y-82820000D03*
X115887500Y-82820000D03*
X113347500Y-82820000D03*
X110807500Y-82820000D03*
X110807500Y-90720000D03*
X113347500Y-90720000D03*
X115887500Y-90720000D03*
X118427500Y-90720000D03*
%TD*%
D10*
%TO.C,J3*%
X91757500Y-102920000D03*
D11*
X94297500Y-102920000D03*
X96837500Y-102920000D03*
X99377500Y-102920000D03*
X101917500Y-102920000D03*
X104457500Y-102920000D03*
X106997500Y-102920000D03*
X109537500Y-102920000D03*
X112077500Y-102920000D03*
X114617500Y-102920000D03*
X117157500Y-102920000D03*
X119697500Y-102920000D03*
X122237500Y-102920000D03*
X124777500Y-102920000D03*
X127317500Y-102920000D03*
X129857500Y-102920000D03*
X132397500Y-102920000D03*
X134937500Y-102920000D03*
X137477500Y-102920000D03*
X140017500Y-102920000D03*
X142557500Y-102920000D03*
X145097500Y-102920000D03*
X147637500Y-102920000D03*
X150177500Y-102920000D03*
%TD*%
D13*
%TO.C,R5*%
X101917500Y-77870000D03*
X101917500Y-70270000D03*
%TD*%
D14*
%TO.C,J5*%
X145097500Y-84610000D03*
X145097500Y-91760000D03*
%TD*%
D10*
%TO.C,J10*%
X91757500Y-68990000D03*
D11*
X91757500Y-71530000D03*
X91757500Y-74070000D03*
X91757500Y-76610000D03*
X91757500Y-79150000D03*
X91757500Y-81690000D03*
%TD*%
D15*
%TO.C,SW1*%
X111787500Y-130380000D03*
X111787500Y-136880000D03*
X107287500Y-130380000D03*
X107287500Y-136880000D03*
%TD*%
D10*
%TO.C,J2*%
X91757500Y-120220000D03*
D11*
X94297500Y-120220000D03*
X96837500Y-120220000D03*
X99377500Y-120220000D03*
X101917500Y-120220000D03*
X104457500Y-120220000D03*
X106997500Y-120220000D03*
X109537500Y-120220000D03*
X112077500Y-120220000D03*
X114617500Y-120220000D03*
X117157500Y-120220000D03*
X119697500Y-120220000D03*
X122237500Y-120220000D03*
X124777500Y-120220000D03*
X127317500Y-120220000D03*
X129857500Y-120220000D03*
X132397500Y-120220000D03*
X134937500Y-120220000D03*
X137477500Y-120220000D03*
X140017500Y-120220000D03*
X142557500Y-120220000D03*
X145097500Y-120220000D03*
X147637500Y-120220000D03*
X150177500Y-120220000D03*
%TD*%
D10*
%TO.C,J1*%
X91757500Y-124870000D03*
D11*
X94297500Y-124870000D03*
X96837500Y-124870000D03*
X99377500Y-124870000D03*
X101917500Y-124870000D03*
X104457500Y-124870000D03*
X106997500Y-124870000D03*
X109537500Y-124870000D03*
X112077500Y-124870000D03*
X114617500Y-124870000D03*
X117157500Y-124870000D03*
X119697500Y-124870000D03*
X122237500Y-124870000D03*
X124777500Y-124870000D03*
X127317500Y-124870000D03*
X129857500Y-124870000D03*
X132397500Y-124870000D03*
X134937500Y-124870000D03*
X137477500Y-124870000D03*
X140017500Y-124870000D03*
X142557500Y-124870000D03*
X145097500Y-124870000D03*
X147637500Y-124870000D03*
X150177500Y-124870000D03*
%TD*%
D10*
%TO.C,J11*%
X91757500Y-51210000D03*
D11*
X91757500Y-53750000D03*
X91757500Y-56290000D03*
X91757500Y-58830000D03*
X91757500Y-61370000D03*
X91757500Y-63910000D03*
%TD*%
D10*
%TO.C,J7*%
X122237500Y-89310000D03*
D11*
X124777500Y-89310000D03*
%TD*%
M02*
